Data analysis
…
The response variable is TWITTER_FOLLOWER_COUNT_MILLIONS, which measures players Twitter follower count at the time the data was collected.

Exploratory data analysis

Univariate

First, we will do univariate EDA on the dataset. Player name will be used to refer to observations in our data set, but since each player name is distinct we do not need to do EDA on the PLAYER_NAME variable.

Here, Ill take a look at how many players there are from each team in the dataset.

nba_social_power_mod %>%
  count(TEAM_ABBREVIATION) %>%
  arrange(n)

## # A tibble: 30 x 2
##    TEAM_ABBREVIATION     n
##    <chr>             <int>
##  1 SAC                   1
##  2 CHI                   2
##  3 IND                   2
##  4 LAL                   2
##  5 MIA                   2
##  6 MIN                   2
##  7 ORL                   2
##  8 WAS                   2
##  9 ATL                   3
## 10 BKN                   3
## # ... with 20 more rows
…
